…
``` r
xdf
```

    ## # A tibble: 26,155 x 11
    ##    action protocol      src_addr   src_ports      direction  dst_addr dst_ports commented           options    id
    ##     <chr>    <chr>         <chr>       <chr>          <chr>     <chr>     <chr>     <lgl>            <list> <int>
    ##  1  alert      tcp $EXTERNAL_NET $HTTP_PORTS unidirectional $HOME_NET       any     FALSE <tibble [20 x 2]>     1
    ##  2  alert      tcp $EXTERNAL_NET $HTTP_PORTS unidirectional $HOME_NET       any      TRUE <tibble [23 x 2]>     2
    ##  3  alert      tcp $EXTERNAL_NET $HTTP_PORTS unidirectional $HOME_NET       any      TRUE <tibble [16 x 2]>     3
    ##  4  alert      tcp $EXTERNAL_NET $HTTP_PORTS unidirectional $HOME_NET       any     FALSE <tibble [28 x 2]>     4
    ##  5  alert      tcp $EXTERNAL_NET $HTTP_PORTS unidirectional $HOME_NET       any      TRUE <tibble [16 x 2]>     5
    ##  6  alert      tcp $EXTERNAL_NET $HTTP_PORTS unidirectional $HOME_NET       any      TRUE <tibble [16 x 2]>     6
    ##  7  alert      tcp $EXTERNAL_NET $HTTP_PORTS unidirectional $HOME_NET       any      TRUE <tibble [16 x 2]>     7
    ##  8  alert      tcp $EXTERNAL_NET $HTTP_PORTS unidirectional $HOME_NET       any      TRUE <tibble [16 x 2]>     8
    ##  9  alert      tcp $EXTERNAL_NET $HTTP_PORTS unidirectional $HOME_NET       any      TRUE <tibble [16 x 2]>     9
    ## 10  alert      tcp $EXTERNAL_NET $HTTP_PORTS unidirectional $HOME_NET       any      TRUE <tibble [16 x 2]>    10
    ## # ... with 26,145 more rows, and 1 more variables: fil <chr>

What are the most referenced URLs in Emerging Threats feed?

``` r
unnest(xdf) %>% 
  filter(option == "reference") %>% 
  filter(grepl("^url", value)) %>% 
  select(value) %>% 
  mutate(value = sub("^url,", "", value)) %>% 
  count(value, sort=TRUE)
```

    ## # A tibble: 14,425 x 2
    ##                                                                          value     n
    ##                                                                          <chr> <int>
    ##  1                              doc.emergingthreats.net/bin/view/Main/TorRules  1452
    ##  2                                 doc.emergingthreats.net/bin/view/Main/BotCC   657
    ##  3                                                              sslbl.abuse.ch   608
    ##  4 blog.unmaskparasites.com/2012/06/22/runforestrun-and-pseudo-random-domains/   407
    ##  5        blog.opendns.com/2012/07/10/opendns-security-team-blackhole-exploit/   401
    ##  6                                                  ransomwaretracker.abuse.ch   358
    ##  7                                                        www.shadowserver.org   261
    ##  8                 www.appsecinc.com/resources/alerts/oracle/2004-0001/25.html   211
    ##  9                                                           www.cinsscore.com   200
    ## 10                                                www.networkcloaking.com/cins   200
    ## # ... with 14,415 more rows
…
